HSET thunderhill_raceway_park lat 39.5392738 long -122.3326425
HSET sonoma_raceway lat 38.1608659 long -122.4546942
HSET weathertech_raceway_laguna_seca lat 36.5842902	long -121.7534634
HSET buttonwillow_raceway_park lat 35.4907701 long -119.5446288
HSET willow_springs_international_raceway lat 34.8747469 long -118.2591121
HSET streets_of_willow_springs lat 34.8747469 long -118.2591121
HSET auto_club_speedway lat 34.0850884 long -117.4942667
HSET chuckwalla_valley_raceway lat 33.7528181 long -115.3170488
HSET spring_mountain_motor_resort_and_country_club lat 36.1722898 long -115.9099764
HSET pacific_raceways lat 47.320672	long -122.147423
HSET the_ridge_motorsports_park lat 47.2548686 long -123.1914352
HSET portland_international_raceway lat 45.5930851 long-122.6881306
HSET pikes_peak_international_raceway lat 38.591059	long -104.677175
HSET la_junta_raceway lat 38.0431245 long -103.5177121
HSET high_plains_raceway lat 39.7355962	long -103.8972064
HSET circuit_of_the_americas lat 30.1345808	long -97.6358511
HSET msr_houston lat 29.2777367	long -95.4235369
HSET motorsport_ranch lat 32.5239005 long -97.6166751
HSET hallett_motor_racing_circuit lat 36.2174569 long -96.5889728
HSET mid-ohio_sports_car_course lat 40.6906568 long -82.6375867
HSET gingerman_raceway lat 42.406696 long -86.139936
HSET road_america lat 43.8045051 long -87.9868194
HSET blackhawk_farms_raceway lat 42.4872366	long -89.1078886
HSET autobahn_country_club lat 41.4547298 long -88.1186797
HSET m1_concourse lat 42.6195865 long -83.2853519
HSET indianapolis_motor_speedway lat 39.7953542	long -86.2353006
HSET road_atlanta lat 34.1384401 long -83.8180554
HSET barber_motorsports_park lat 33.5318079	long -86.6189146
HSET atlanta_motorsports_park lat 34.4329676 long -84.1765952
HSET memphis_international_raceway lat 35.2828858 long -89.947722
HSET the_firm lat 29.8435707 long -82.0566487
HSET sebring_international_raceway lat 27.4550124 long -81.3496801
HSET daytona_international_speedway lat 29.185169 long -81.070528
HSET new_jersey_motorsports_park lat 39.3578641	long -75.0550673
HSET watkins_glen_international lat 42.3382811 long -76.9263577
HSET lime_rock_park_raceway lat 41.9275498 long -73.383306
HSET pittsburgh_international_race_complex lat 40.849989 long -80.343192
HSET ncm_motorsports_park lat 36.9970956 long -86.3729674
HSET carolina_motorsports_park_inc. lat 34.488077 long -80.596071
HSET virginia_international_raceway lat 36.560008 long -79.202606
HSET nola_motorsports_park lat 29.8932349 long -90.1898276
HSET arizona_motorsports_park lat 33.5156012 long -112.3900938
HSET grattan_raceway lat 43.095452	long -85.3849649
HSET arroyo_seco_motorplex lat 32.239101 long -107.434569
HSET brainerd_international_raceway lat 46.4175532	long -94.2849789
HSET charlotte_motor_speedway lat 35.351547	long -80.686551
HSET harris_hill_raceway lat 29.9201124	long -97.8744759
HSET heartland_motorsports_park lat 38.9325189 long -95.678367
HSET inde_motorsports_ranch lat 32.232562 long -110.009859
HSET motorsport_park_hastings lat 40.578467	long -98.3528166
HSET raceway_park_of_the_midlands lat 41.0198166 long -95.8168426
HSET thompson_raceway lat 41.9819209 long -71.827928
HSET nelson_ledges_race_course lat 41.3098882 long -81.0159375
HSET oregon_raceway_park lat 45.3641908	long -120.742466
HSET palm_beach_international_raceway lat 26.9171618 long -80.3054287
HSET palmer_motorsports_park lat 42.2334253	long -72.2460134
HSET pueblo_motorsports_park lat 38.3018689	long -104.6766987
HSET putnam_park_road_course lat 39.5816999	long -86.7529449
HSET roebling_road_raceway lat 32.1664749 long -81.3228847
HSET sandia_speedway lat 35.0209955	long -106.8603228
HSET summit_point_motorsports_park lat 39.2428811 long -77.9727582
HSET utah_motorsports_campus lat lo40.5848466 long -112.3734399ng
HSET waterford_hills_road_racing lat 42.7085525	long -83.3908875
HSET the_thermal_club lat 33.6018698 long -116.1628116
HSET eagles_canyon_raceway lat 33.3668556 long -97.4270742
HSET grandsport_speedway lat lo29.3266109 long -95.0485151ng
HSET new_hampshire_motor_speedway lat 43.36268 long -71.460573
HSET talladega_gran_prix_raceway lat 33.5067831	long -85.999166
HSET las_vegas_motor_speedway lat 36.2722847 long -115.0102761
HSET world_wide_technology_raceway lat 38.6507543 long -90.1353549
HSET iowa_speedway lat 41.674667 long -93.012968
HSET dominion_raceway_&_entertainment lat lo38.1381391 long -77.5038125ng
HSET texas_motor_speedway lat 33.0373212 long -97.2821274
HSET driveway_austin_motorsports lat 30.264694 long -97.6572448
HSET aspen_racing_&_sports_car_club lat 39.2680786 long -106.8802142
HSET bondurant_high_performance_driving_school lat 33.265144 long -111.9679677
HSET wild_horse_pass_motorsports_park lat 33.2689065 long -111.9671537
HSET spokane_county_raceway lat 47.6603438 long -117.5720166
HSET lg_motorsports_park lat 33.3627121	long -96.4556097
HSET atlanta_motor_speedway lat 33.3859794 long -84.3162774
HSET homestead-miami_speedway lat 25.4517775 long -80.4088955
HSET pocono_race_track lat 41.0520762 long -75.5099804
HSET monticello_motor_club lat 41.6168262 long -74.6954495
HSET apex_motor_club lat 33.0826053	long -112.1192655
HSET musselman_honda_circuit lat 32.0362718	long -110.7949208
HSET nccar lat 36.475054 long -77.585768
HSET club_motorsports lat 43.8230258 long -71.2491475
HSET grand_junction_motor_speedway lat 39.1095698 long -108.4916391
HSET new_york_safety_track lat 42.4867183 long -74.7808602
HSET canaan_motor_club lat 43.649833 long -72.0001458
HSET pineview_run:_auto_&_country_club lat 42.8795609 long -76.1822724
HSET jenningsgp lat 30.5752318	long -83.157096
HSET englishtown_raceway_park lat 40.3333147 long -74.3493443
HSET nashville_superspeedway lat 36.046245 long -86.41041
HSET ozarks_international_raceway lat 38.2702809 long -92.8910026
HSET toronto_motorsports_park lat 42.8989655 long -79.8569676
HSET calabogie_motorsports lat 45.3041229 long -76.672673
HSET area_27_motorsports_park lat 49.1637012 long -119.5221038
HSET canadian_tire_motorsport_park lat 44.0552611 long -78.676138
HSET atlantic_motorsport_park lat 45.145 long -63.448611
HSET autodrome_st_félicien lat 48.677285 long -72.5186765
HSET castrol_raceway lat 53.333815 long -113.5907864
HSET circuit_gilles_villeneuve lat 45.5032189 long -73.5266876
HSET gimli_motorsports_park_circuit lat 50.629944 long -97.0520061
HSET icar_mirabel_-_motorsports_complex lat 45.6810411 long -74.0250428
HSET st._croix_riverside_speedway lat 46.632276 long -71.7878969
HSET grand_bend_motorplex lat 43.2933105 long -81.7194525
HSET mission_raceway_park lat 49.1255285 long -122.3231492
HSET circuit_mont-tremblant lat 46.1815549 long -74.6141938
HSET sanair_super_speedway lat 45.5289044 long -72.8818267
HSET shannonville_motorsports_park lat 44.2247387 long -77.1591345
HSET vancouver_island_motorsport_circuit lat 48.800771 long -123.779721
HSET autodrome_montmagny lat 46.9330413	long -70.5503261
HSET autodromo_hermanos_rodriguez lat 19.4040417 long -99.0895156
HSET autódromo_monterrey lat 25.8611128	long -100.2182809
HSET autódromo_tangamanga lat 22.1824993 long -100.9907802
HSET autódromo_miguel_e._abed lat 19.026608	long -97.989109
HSET autodromo_of_queretaro lat 20.58643 long -100.328616
HSET autódromo_chiapas lat 16.7788626 long -93.2505476
HSET autódromo_de_león lat 21.0336598 long -101.5734796
HSET autódromo_pedro_cofiño lat 14.382507 long -90.8201751
HSET autódromo_internacional_el_jabali lat 13.8097428 long -89.3296838
HSET jamwest_motorsports_&_adventure_park lat 18.2144883 long -78.2499188
HSET dover_race_way lat 18.422133 long -77.3765849
HSET salinas_speedway lat 17.9701041 long -66.2668398
HSET panama_international_circuit lat 8.971219 long -79.83284
HSET bushy_park_barbados lat 13.137927 long -59.4671654
HSET circuit_9_haiti lat 18.5839543	long -72.3181194
HSET autódromo_yucatán lat 21.1834748 long -89.6248927
HSET autodromo_guadalajara lat 20.5298901 long -103.3422374
HSET circuito_competencias_parque_viva lat 9.9736374 long -84.2481208
HSET autodrómo_internacional_de_las_américas lat 18.4646795	long -69.746572